_id,codice,adattatore_en,adattatore_it,alimentatore,alimentatore_incluso,attacco,ce,classe_isolamento,colore,corpo_en,corpo_it,descrizione_applicazione,destinazione,divieto_controsoffitti,f,fascio,filo_incandescente,foro,generazione,hz,inclinabile,ip,irc,k,lampadina,les,linea,lm,ma,macadam,modello,orientabile,ottica_en,ottica_it,prezzo,rischio_fotobiologico,satinato,tmax,tradizionale,verniciatura,exportMetel,mdate
ObjectId(56b8aa8f0de23c956009b363),F111ABD1-G4,,,,false,,true,2,Bianco,Die-cast aluminium body,Corpo in pressofusione di alluminio,,indoor,false,true,17,850,,G4,50-60,,20,>80,3000,,LES 19,ilmas,1750,350,3,ObjectId(56b8aaa90de23c95600bd225),,"Pure 99,98 aluminium reflector metallized with safety glass","Riflettore in alluminio metallizzato puro 99,98 con vetro di protezione",102.6,RG1,false,30,false,A polvere epossidica stabilizzata UV,false,2017-06-08T07:34:03.583Z
ObjectId(56b8aa8f0de23c956009b364),F111ABD2-G4,,,,false,,true,2,Nero,Die-cast aluminium body,Corpo in pressofusione di alluminio,,indoor,false,true,17,850,,G4,50-60,,20,>80,3000,,LES 19,ilmas,1750,350,3,ObjectId(56b8aaa90de23c95600bd225),,"Pure 99,98 aluminium reflector metallized with safety glass","Riflettore in alluminio metallizzato puro 99,98 con vetro di protezione",102.6,RG1,false,30,false,A polvere epossidica stabilizzata UV,false,2017-06-08T07:34:06.168Z
