KIT,COD_PADRE,PREZZO_KIT
K0010,0796IBR1E,€ 88
K0013,0796ABR1E,€ 88
K0016,0796BBR1E,€ 88
K0019,0796ICR1E,€ 88
K0022,0796ACR1E,€ 88
K0025,0796BCR1E,€ 88
K0028,0796IDR1E,€ 88
K0031,0796ADR1E,€ 88
K0034,0796BDR1E,€ 88
K0011,0796IBR2E,€ 88
K0014,0796ABR2E,€ 88
K0017,0796BBR2E,€ 88
K0020,0796ICR2E,€ 88
K0023,0796ACR2E,€ 88
K0026,0796BCR2E,€ 88
K0029,0796IDR2E,€ 88
K0032,0796ADR2E,€ 88
K0035,0796BDR2E,€ 88
K0012,0796IBR0E,€ 88
K0015,0796ABR0E,€ 88
K0018,0796BBR0E,€ 88
K0021,0796ICR0E,€ 88
K0024,0796ACR0E,€ 88
K0027,0796BCR0E,€ 88
K0030,0796IDR0E,€ 88
K0033,0796ADR0E,€ 88
K0036,0796BDR0E,€ 88
K0040,0797ICR1E,€ 109
K0043,0797ACR1E,€ 109
K0046,0797BCR1E,€ 109
K0049,0797IDR1E,€ 109
K0052,0797ADR1E,€ 109
K0055,0797BDR1E,€ 109
K0058,0797IER1E,€ 109
K0061,0797AER1E,€ 109
K0064,0797BER1E,€ 109
K0041,0797ICR2E,€ 109
K0044,0797ACR2E,€ 109
K0047,0797BCR2E,€ 109
K0050,0797IDR2E,€ 109
K0053,0797ADR2E,€ 109
K0056,0797BDR2E,€ 109
K0059,0797IER2E,€ 109
K0062,0797AER2E,€ 109
K0065,0797BER2E,€ 109
K0042,0797ICR0E,€ 109
K0045,0797ACR0E,€ 109
K0048,0797BCR0E,€ 109
K0051,0797IDR0E,€ 109
K0054,0797ADR0E,€ 109
K0057,0797BDR0E,€ 109
K0060,0797IER0E,€ 109
K0063,0797AER0E,€ 109
K0066,0797BER0E,€ 109
K0070,0798ICT1E,€ 117
K0073,0798ACT1E,€ 117
K0076,0798BCT1E,€ 117
K0079,0798IDT1E,€ 117
K0082,0798ADT1E,€ 117
K0085,0798BDT1E,€ 117
K0088,0798IFT1E,€ 117
K0091,0798AFT1E,€ 117
K0094,0798BFT1E,€ 117
K0071,0798ICT2E,€ 117
K0074,0798ACT2E,€ 117
K0077,0798BCT2E,€ 117
K0080,0798IDT2E,€ 117
K0083,0798ADT2E,€ 117
K0086,0798BDT2E,€ 117
K0089,0798IFT2E,€ 117
K0092,0798AFT2E,€ 117
K0095,0798BFT2E,€ 117
K0072,0798ICT0E,€ 117
K0075,0798ACT0E,€ 117
K0078,0798BCT0E,€ 117
K0081,0798IDT0E,€ 117
K0084,0798ADT0E,€ 117
K0087,0798BDT0E,€ 117
K0090,0798IFT0E,€ 117
K0093,0798AFT0E,€ 117
K0096,0798BFT0E,€ 117
K0100,07998ICT1E,€ 127
K0103,0799ACT1E,€ 127
K0106,0799BCT1E,€ 127
K0127,0799IDT1E,€ 127
K0112,0799ADT1E,€ 127
K0115,0799BDT1E,€ 127
K0118,0799IFT1E,€ 127
K0121,0799AFT1E,€ 127
K0124,0799BFT1E,€ 127
K0101,0799ICT2E,€ 127
K0104,0799ACT2E,€ 127
K0107,0799BCT2E,€ 127
K0110,0799IDT2E,€ 127
K0113,0799ADT2E,€ 127
K0116,0799BDT2E,€ 127
K0119,0799IFT2E,€ 127
K0122,0799AFT2E,€ 127
K0125,0799BFT2E,€ 127
K0102,0799ICT0E,€ 127
K0105,0799ACT0E,€ 127
K0108,0799BCT0E,€ 127
K0111,0799IDT0E,€ 127
K0114,0799ADT0E,€ 127
K0117,0799BDT0E,€ 127
K0120,0799IFT0E,€ 127
K0123,0799AFT0E,€ 127
K0126,0799BFT0E,€ 127
K0130,0786IBR1E,€ 97
K0133,0786ABR1E,€ 97
K0136,0786BBR1E,€ 97
K0139,0786ICR1E,€ 97
K0142,0786ACR1E,€ 97
K0145,0786BCR1E,€ 97
K0148,0786IDR1E,€ 97
K0151,0786ADR1E,€ 97
K0154,0786BDR1E,€ 97
K0132,0786IBR0E,€ 97
K0135,0786ABR0E,€ 97
K0138,0786BBR0E,€ 97
K0141,0786ICR0E,€ 97
K0144,0786ACR0E,€ 97
K0147,0786BCR0E,€ 97
K0150,0786IDR0E,€ 97
K0153,0786ADR0E,€ 97
K0156,0786BDR0E,€ 97
K0160,0787ICR1E,€ 120
K0163,0787ACR1E,€ 120
K0166,0787BCR1E,€ 120
K0169,0787IDR1E,€ 120
K0172,0787ADR1E,€ 120
K0175,0787BDR1E,€ 120
K0161,0787ICR2E,€ 120
K0164,0787ACR2E,€ 120
K0167,0787BCR2E,€ 120
K0170,0787IDR2E,€ 120
K0173,0787ADR2E,€ 120
K0176,0787BDR2E,€ 120
K0162,0787ICR0E,€ 120
K0165,0787ACR0E,€ 120
K0168,0787BCR0E,€ 120
K0171,0787IDR0E,€ 120
K0174,0787ADR0E,€ 120
K0177,0787BDR0E,€ 120
K1190,0787ICR7037E,€ 88
K1191,0787ACR7037E,€ 88
K1192,0787BCR7037E,€ 88
K1193,0787IDR7037E,€ 88
K1194,0787ADR7037E,€ 88
K1195,0787BDR7037E,€ 88
K0190,0788ICR1E,€ 129
K0193,0788ACR1E,€ 129
K0196,0788BCR1E,€ 129
K0199,0788IDR1E,€ 129
K0202,0788ADR1E,€ 129
K0205,0788BDR1E,€ 129
K0208,0788IFR1E,€ 129
K0211,0788AFR1E,€ 129
K0214,0788BFR1E,€ 129
K0191,0788ICR2E,€ 129
K0194,0788ACR2E,€ 129
K0197,0788BCR2E,€ 129
K0200,0788IDR2E,€ 129
K0203,0788ADR2E,€ 129
K0206,0788BDR2E,€ 129
K0209,0788IFR2E,€ 129
K0212,0788AFR2E,€ 129
K0215,0788BFR2E,€ 129
K1130,0788ICR7037E,€ 95
K1132,0788ACR7037E,€ 95
K1133,0788BCR7037E,€ 95
K1134,0788IDR7037E,€ 95
K1135,0788ADR7037E,€ 95
K1136,0788BDR7037E,€ 95
K1137,0788IFR7037E,€ 95
K1138,0788AFR7037E,€ 95
K1140,0788BFR7037E,€ 95
K0220,0789ICR1E,€ 141
K0223,0789ACR1E,€ 141
K0226,0789BCR1E,€ 141
K0229,0789IDR1E,€ 141
K0232,0789ADR1E,€ 141
K0235,0789BDR1E,€ 141
K0238,0789IFR1E,€ 141
K0241,0789AFR1E,€ 141
K0244,0789BFR1E,€ 141
K0221,0789ICR2E,€ 141
K0224,0789ACR2E,€ 141
K0227,0789BCR2E,€ 141
K0230,0789IDR2E,€ 141
K0233,0789ADR2E,€ 141
K0236,0789BDR2E,€ 141
K0239,0789IFR2E,€ 141
K0242,0789AFR2E,€ 141
K0245,0789BFR2E,€ 141
K0222,0789ICR0E,€ 141
K0225,0789ACR0E,€ 141
K0228,0789BCR0E,€ 141
K0231,0789IDR0E,€ 141
K0234,0789ADR0E,€ 141
K0237,0789BDR0E,€ 141
K0240,0789IFR0E,€ 141
K0243,0789AFR0E,€ 141
K0246,0789BFR0E,€ 141
K0250,0692ZAS1E,€ 54
K0251,06927AS1E,€ 54
K0252,06928AS1E,€ 54
K0260,06922PQ1,€ 19
K0261,06923PQ1,€ 19
K0270,0693ZAS1E,€ 54
K0271,06937AS1E,€ 54
K0272,06938AS1E,€ 54
K0280,06932PQ1,€ 19
K0281,06933PQ1,€ 19
K0290,3265ZAS1E,€ 49
K0293,32657AS1E,€ 49
K0296,32658AS1E,€ 49
K0291,3265ZAS2E,€ 49
K0294,32657AS2E,€ 49
K0297,32658AS2E,€ 49
K0292,3265ZAS0E,€ 49
K0295,32657AS0E,€ 49
K0298,32658AS0E,€ 49
K0300,32652PQ1,€ 15
K0303,32653PQ1,€ 15
K0301,32652PQ2,€ 15
K0304,32653PQ2,€ 15
K0302,32652PQ0,€ 15
K0305,32653PQ0,€ 15
K0310,3266ZAS1E,€ 49
K0313,32667AS1E,€ 49
K0316,32668AS1E,€ 49
K0311,3266ZAS2E,€ 49
K0314,32667AS2E,€ 49
K0317,32668AS2E,€ 49
K0312,3266ZAS0E,€ 49
K0315,32667AS0E,€ 49
K0318,32668AS0E,€ 49
K0320,32662PQ1,€ 15
K0323,32663PQ1,€ 15
K0321,32662PQ2,€ 15
K0324,32663PQ2,€ 15
K0322,32662PQ0,€ 15
K0325,32663PQ0,€ 15
K0330,3209ZAS1E,€ 53
K0333,32097AS1E,€ 53
K0336,32098AS1E,€ 53
K0331,3209ZAS2E,€ 53
K0334,32097AS2E,€ 53
K0337,32098AS2E,€ 53
K0332,3209ZAS0E,€ 53
K0335,32097AS0E,€ 53
K0338,32098AS0E,€ 53
K0340,32092PQ1,€ 21
K0343,32093PQ1,€ 21
K0341,32092PQ2,€ 21
K0344,32093PQ2,€ 21
K0342,32092PQ0,€ 21
K0345,32093PQ0,€ 21
K0350,3210ZAS1E,€ 53
K0353,32107AS1E,€ 53
K0356,32108AS1E,€ 53
K0351,3210ZAS2E,€ 53
K0354,32107AS2E,€ 53
K0357,32108AS2E,€ 53
K0352,3210ZAS0E,€ 53
K0355,32107AS0E,€ 53
K0358,32108AS0E,€ 53
K0360,32102PQ1,€ 21
K0363,32103PQ1,€ 21
K0361,32102PQ2,€ 21
K0364,32103PQ2,€ 21
K0362,32102PQ0,€ 21
K0365,32103PQ0,€ 21
K0370,B835ZAS1E,€ 47
K0376,B8357AS1E,€ 47
K0382,B8358AS1E,€ 47
K0371,B835ZAS2E,€ 47
K0377,B8357AS2E,€ 47
K0383,B8358AS2E,€ 47
K0372,B835ZAS0E,€ 47
K0378,B8357AS0E,€ 47
K0384,B8358AS0E,€ 47
K0373,B835ZAS5E,€ 47
K0379,B8357AS5E,€ 47
K0385,B8358AS5E,€ 47
K0374,B835ZAS8E,€ 47
K0380,B8357AS8E,€ 47
K0386,B8358AS8E,€ 47
K0375,B835ZASNE,€ 47
K0381,B8357ASNE,€ 47
K0387,B8358ASNE,€ 47
K0390,B8352PQ1,€ 13
K0396,B8353PQ1,€ 13
K0391,B8352PQ2,€ 13
K0397,B8353PQ2,€ 13
K0392,B8352PQ0,€ 13
K0398,B8353PQ0,€ 13
K0393,B8352PQ5,€ 13
K0399,B8353PQ5,€ 13
K0394,B8352PQ8,€ 13
K0400,B8353PQ8,€ 13
K0395,B8352PQN,€ 13
K0401,B8353PQN,€ 13
K0410,0694ZAS1E,€ 52
K0411,06947AS1E,€ 52
K0412,06948AS1E,€ 52
K0420,06942PQ1,€ 19
K0421,06943PQ1,€ 19
K0430,0695ZAS1E,€ 52
K0431,06957AS1E,€ 52
K0432,06958AS1E,€ 52
K0440,06952PQ1,€ 19
K0441,06953PQ1,€ 19
K0450,090022N1E,€ 39
K0453,090032N1E,€ 39
K0451,090022N2E,€ 39
K0454,090032N2E,€ 39
K0452,090022NBNE,€ 39
K1094,08732BT1E,€ 69
K1095,08733BT1E,€ 69
K1142,08742BT1E,€ 69
K1144,08743BT1E,€ 69
K1150,08752BT1E,€ 69
K1151,08753BT1E,€ 69
K1160,08762BT1E,€ 69
K1161,08763BT1E,€ 69
K0460,06207WB1,€ 70
K0462,06208WB 1,€ 70
K0464,06207WF1,€ 70
K0466,06208WF 1,€ 70
K0468,06207WN1,€ 70
K0470,06208WN 1,€ 70
K0461,06207WB2,€ 70
K0463,06208WB2,€ 70
K0465,06207WF2,€ 70
K0467,06208WF2,€ 70
K0469,06207WN2,€ 70
K0471,06208WN 2,€ 70
K1141,09312XZ1,€ 29
K1143,09313XZ1,€ 29
K1153,09332XZ1,€ 36
K0480,0670RBT2E,€ 91
K0483,06705BT2E,€ 91
K0486,06706BT2E,€ 91
K0489,0670RCT2E,€ 91
K0492,06705CT2E,€ 91
K0495,06706CT2E,€ 91
K0481,0670RBT0E,€ 91
K0484,06705BT0E,€ 91
K0487,06706BT0E,€ 91
K0490,0670RCT0E,€ 91
K0493,06705CT0E,€ 91
K0496,06706CT0E,€ 91
K0482,0670RBT9E,€ 91
K0485,06705BT9E,€ 91
K0488,06706BT9E,€ 91
K0491,0670RCT9E,€ 91
K0494,06705CT9E,€ 91
K0497,06706CT9E,€ 91
K0500,0671ICR2E,€ 98
K0503,0671ACR2E,€ 98
K0506,0671BCR2E,€ 98
K0509,0671IQR2E,€ 98
K0512,0671AQR2E,€ 98
K0515,0671BQR2E,€ 98
K0501,0671ICR0E,€ 98
K0504,0671ACR0E,€ 98
K0507,0671BCR0E,€ 98
K0510,0671IQR0E,€ 98
K0513,0671AQR0E,€ 98
K0516,0671BQR0E,€ 98
K0502,0671ICR9E,€ 98
K0505,0671ACR9E,€ 98
K0508,0671BCR9E,€ 98
K0511,0671IQR9E,€ 98
K0514,0671AQR9E,€ 98
K0517,0671BQR9E,€ 98
K0520,0672IQR2E,€ 111
K0523,0672AQR2E,€ 111
K0526,0672BQR2E,€ 111
K0529,0672ISR2E,€ 111
K0532,0672ASR2E,€ 111
K0535,0672BSR2E,€ 111
K0521,0672IQR0E,€ 111
K0524,0672AQR0E,€ 111
K0527,0672BQR0E,€ 111
K0530,0672ISR0E,€ 111
K0533,0672ASR0E,€ 111
K0536,0672BSR0E,€ 111
K0522,0672IQR9E,€ 111
K0525,0672AQR9E,€ 111
K0528,0672BQR9E,€ 111
K0531,0672ISR9E,€ 111
K0534,0672ASR9E,€ 111
K0537,0672BSR9E,€ 111
K0540,0660RBT2E,€ 111
K0543,06605BT2E,€ 111
K0546,06606BT2E,€ 111
K0541,0660RBT0E,€ 111
K0544,06605BT0E,€ 111
K0547,06606BT0E,€ 111
K0542,0660RBT9E,€ 111
K0545,06605BT9E,€ 111
K0548,06606BT9E,€ 111
K0550,0661ICR2E,€ 118
K0553,0661ACR2E,€ 118
K0556,0661BCR2E,€ 118
K0559,0661IQR2E,€ 118
K0562,0661AQR2E,€ 118
K0565,0661BQR2E,€ 118
K0551,0661ICR0E,€ 118
K0554,0661ACR0E,€ 118
K0557,0661BCR0E,€ 118
K0560,0661IQR0E,€ 118
K0563,0661AQR0E,€ 118
K0566,0661BQR0E,€ 118
K0552,0661ICR9E,€ 118
K0555,0661ACR9E,€ 118
K0558,0661BCR9E,€ 118
K0561,0661IQR9E,€ 118
K0564,0661AQR9E,€ 118
K0567,0661BQR9E,€ 118
K0570,0662IQR2E,€ 128
K0573,0662AQR2E,€ 128
K0576,0662BQR2E,€ 128
K0579,0662ISR2E,€ 128
K0582,0662ASR2E,€ 128
K0585,0662BSR2E,€ 128
K0571,0662IQR0E,€ 128
K0574,0662AQR0E,€ 128
K0577,0662BQR0E,€ 128
K0580,0662ISR0E,€ 128
K0583,0662ASR0E,€ 128
K0586,0662BSR0E,€ 128
K0572,0662IQR9E,€ 128
K0575,0662AQR9E,€ 128
K0578,0662BQR9E,€ 128
K0581,0662ISR9E,€ 128
K0584,0662ASR9E,€ 128
K0587,0662BSR9E,€ 128
K0590,0730IBR1E,€ 111
K0593,0730ABR1E,€ 111
K0596,0730BBR1E,€ 111
K0591,0730IBR2E,€ 111
K0594,0730ABR2E,€ 111
K0597,0730BBR2E,€ 111
K0592,0730IBR0E,€ 111
K0595,0730ABR0E,€ 111
K0598,0730BBR0E,€ 111
K0600,0731IBR1E,€ 118
K0603,0731ABR1E,€ 118
K0606,0731BBR1E,€ 118
K0609,0731ICR1E,€ 118
K0612,0731ACR1E,€ 118
K0615,0731BCR1E,€ 118
K0618,0731IQR1E,€ 118
K0621,0731AQR1E,€ 118
K0624,0731BQR1E,€ 118
K0601,0731IBR2E,€ 118
K0604,0731ABR2E,€ 118
K0607,0731BBR2E,€ 118
K0610,0731ICR2E,€ 118
K0613,0731ACR2E,€ 118
K0616,0731BCR2E,€ 118
K0619,0731IQR2E,€ 118
K0622,0731AQR2E,€ 118
K0625,0731BQR2E,€ 118
K0602,0731IBR0E,€ 118
K0605,0731ABR0E,€ 118
K0608,0731BBR0E,€ 118
K0611,0731ICR0E,€ 118
K0614,0731ACR0E,€ 118
K0617,0731BCR0E,€ 118
K0620,0731IQR0E,€ 118
K0623,0731AQR0E,€ 118
K0626,0731BQR0E,€ 118
K0630,0732IDP1E,€ 120
K0633,073ADP1E,€ 120
K0636,0732BDP1E,€ 120
K0639,0732IEP1E,€ 120
K0642,073AEP1E,€ 120
K0645,0732BEP1E,€ 120
K0631,0732IDP2E,€ 120
K0634,073ADP2E,€ 120
K0637,0732BDP2E,€ 120
K0640,0732IEP2E,€ 120
K0643,073AEP2E,€ 120
K0646,0732BEP2E,€ 120
K0632,0732IDP0E,€ 120
K0635,073ADP0E,€ 120
K0638,0732BDP0E,€ 120
K0641,0732IEP0E,€ 120
K0644,073AEP0E,€ 120
K0647,0732BEP0E,€ 120
K0650,1704RBT1E,€ 71
K0653,17045BT1E,€ 71
K0656,17046BT1E,€ 71
K0659,1704RCT1E,€ 71
K0672,17045CT1E,€ 71
K0675,17046CT1E,€ 71
K0651,1704RBT2E,€ 71
K0654,17045BT2E,€ 71
K0657,17046BT2E,€ 71
K0670,1704RCT2E,€ 71
K0673,17045CT2E,€ 71
K0676,17046CT2E,€ 71
K0652,1704RBT0E,€ 68
K0655,17045BT0E,€ 68
K0658,17046BT0E,€ 68
K0668,1704RCT0E,€ 68
K0674,17045CT0E,€ 68
K0677,17046CT0E,€ 68
K0700,1706RBT1E,€ 135
K0703,17065BT1E,€ 135
K0706,17066BT1E,€ 135
K0701,1706RBT2E,€ 135
K0704,17065BT2E,€ 135
K0707,17066BT2E,€ 135
K0702,1706RBT0E,€ 128
K0705,17065BT0E,€ 128
K0708,17066BT0E,€ 128
K0710,1707RBT1E,€ 198
K0713,17075BT1E,€ 198
K0716,17076BT1E,€ 198
K0711,1707RBT2E,€ 198
K0714,17075BT2E,€ 198
K0717,17076BT2E,€ 198
K0712,1707RBT0E,€ 188
K0715,17075BT0E,€ 188
K0718,17076BT0E,€ 188
K0720,18082XF0,€ 68
K0721,18083XF0,€ 68
K0722,18082YF0,€ 74
K0723,18083YF0,€ 74
K0724,18082XN0,€ 68
K0725,18083XN0,€ 68
K0726,18082YN0,€ 74
K0727,18083YN0,€ 74
K0730,18092XF0,€ 127
K0731,18093XF0,€ 127
K0732,18092YF0,€ 139
K0733,18093YF0,€ 139
K0734,18092XN0,€ 127
K0735,18093XN0,€ 127
K0736,18092YN0,€ 139
K0737,18093YN0,€ 139
K0740,18102XF0,€ 177
K0741,18103XF0,€ 177
K0742,18102YF0,€ 197
K0743,18103YF0,€ 197
K0744,18102XN0,€ 177
K0745,18103XN0,€ 177
K0746,18102YN0,€ 197
K0747,18103YN0,€ 197
K0750,18085FF0E,€ 98
K0751,18086FF0E,€ 98
K0752,18085FN0E,€ 98
K0753,18086FN0E,€ 98
K0760,18095FF0E,€ 192
K0761,18096FF0E,€ 192
K0762,18095FN0E,€ 192
K0763,18096FN0E,€ 192
K0770,18105FF0E,€ 274
K0771,18106FF0E,€ 274
K0772,18105FN0E,€ 274
K0773,18106FN0E,€ 274
K0780,18087WB1,€ 70
K0781,18088WB1,€ 70
K0782,18087WF1,€ 70
K0783,18088WF1,€ 70
K0784,18087WN1,€ 70
K0785,18088WN1,€ 70
K0790,18097WB1,€ 133
K0791,18098WB1,€ 133
K0792,18097WF1,€ 133
K0793,18098WF1,€ 133
K0794,18097WN1,€ 133
K0795,18098WN1,€ 133
K3100,18107WB1,€ 186
K3101,18108WB1,€ 186
K3102,18107WF1,€ 186
K3103,18108WF1,€ 186
K3104,18107WN1,€ 186
K3105,18108WN1,€ 186
K0800,1240RBT2,€ 118
K0803,12405BT2,€ 118
K0806,12406BT2,€ 118
K0809,1240RCT2,€ 118
K0812,12405CT2,€ 118
K0815,12406CT2,€ 118
K0801,1240RBT0,€ 118
K0804,12405BT0,€ 118
K0807,12406BT0,€ 118
K0810,1240RCT0,€ 118
K0813,12405CT0,€ 118
K0816,12406CT0,€ 118
K0802,1240RBT9,€ 118
K0805,12405BT9,€ 118
K0808,12406BT9,€ 118
K0811,1240RCT9,€ 118
K0814,12405CT9,€ 118
K0817,12406CT9,€ 118
K0820,1241IBR2,€ 122
K0823,1241ABR2,€ 122
K0826,1241BBR2,€ 122
K0829,1241ICR2,€ 122
K0832,1241ACR2,€ 122
K0835,1241BCR2,€ 122
K0838,1241IQR2,€ 122
K0841,1241AQR2,€ 122
K0844,1241BQR2,€ 122
K0821,1241IBR0,€ 122
K0824,1241ABR0,€ 122
K0827,1241BBR0,€ 122
K0830,1241ICR0,€ 122
K0833,1241ACR0,€ 122
K0836,1241BCR0,€ 122
K0839,1241IQR0,€ 122
K0842,1241AQR0,€ 122
K0845,1241BQR0,€ 122
K0822,1241IBR9,€ 122
K0825,1241ABR9,€ 122
K0828,1241BBR9,€ 122
K0831,1241ICR9,€ 122
K0834,1241ACR9,€ 122
K0837,1241BCR9,€ 122
K0840,1241IQR9,€ 122
K0843,1241AQR9,€ 122
K0846,1241BQR9,€ 122
K0850,1242IDR2,€ 129
K0853,1242ADR2,€ 129
K0856,1242BDR2,€ 129
K0859,1242IER2,€ 129
K0862,1242AER2,€ 129
K0865,1242BER2,€ 129
K0851,1242IDR0,€ 129
K0854,1242ADR0,€ 129
K0857,1242BDR0,€ 129
K0860,1242IER0,€ 129
K0863,1242AER0,€ 129
K0866,1242BER0,€ 129
K0852,1242IDR9,€ 129
K0855,1242ADR9,€ 129
K0858,1242BDR9,€ 129
K0861,1242IER9,€ 129
K0864,1242AER9,€ 129
K0867,1242BER9,€ 129
K0870,1242IDR7037,€ 93
K0871,1242ADR7037,€ 93
K0872,1242BDR7037,€ 93
K0873,1242IER7037,€ 93
K0874,1242AER7037,€ 93
K0875,1242BER7037,€ 93
K0880,1290RBT2,€ 113
K0883,12905BT2,€ 113
K0886,12906BT2,€ 113
K0889,1290RCT2,€ 113
K0892,12905CT2,€ 113
K0895,12906CT2,€ 113
K0881,1290RBT0,€ 113
K0884,12905BT0,€ 113
K0887,12906BT0,€ 113
K0890,1290RCT0,€ 113
K0893,12905CT0,€ 113
K0896,12906CT0,€ 113
K0882,1290RBT9,€ 113
K0885,12905BT9,€ 113
K0888,12906BT9,€ 113
K0891,1290RCT9,€ 113
K0894,12905CT9,€ 113
K0897,12906CT9,€ 113
K0900,1291IBR2,€ 118
K0903,1291ABR2,€ 118
K0906,1291BBR2,€ 118
K0909,1291ICR2,€ 118
K0912,1291ACR2,€ 118
K0915,1291BCR2,€ 118
K0918,1291IQR2,€ 118
K0921,1291AQR2,€ 118
K0924,1291BQR2,€ 118
K0901,1291IBR0,€ 118
K0904,1291ABR0,€ 118
K0907,1291BBR0,€ 118
K0910,1291ICR0,€ 118
K0913,1291ACR0,€ 118
K0916,1291BCR0,€ 118
K0919,1291IQR0,€ 118
K0922,1291AQR0,€ 118
K0925,1291BQR0,€ 118
K0902,1291IBR9,€ 118
K0905,1291ABR9,€ 118
K0908,1291BBR9,€ 118
K0911,1291ICR9,€ 118
K0914,1291ACR9,€ 118
K0917,1291BCR9,€ 118
K0920,1291IQR9,€ 118
K0923,1291AQR9,€ 118
K0926,1291BQR9,€ 118
K0930,1292IDR2,€ 125
K0933,1292ADR2,€ 125
K0936,1292BDR2,€ 125
K0939,1292IER2,€ 125
K0942,1292AER2,€ 125
K0945,1292BER2,€ 125
K0931,1292IDR0,€ 125
K0934,1292ADR0,€ 125
K0937,1292BDR0,€ 125
K0940,1292IER0,€ 125
K0943,1292AER0,€ 125
K0946,1292BER0,€ 125
K0932,1292IDR9,€ 125
K0935,1292ADR9,€ 125
K0938,1292BDR9,€ 125
K0941,1292IER9,€ 125
K0944,1292AER9,€ 125
K0947,1292BER9,€ 125
K0950,1330RBT1,€ 118
K0953,13305BT1,€ 118
K0956,13306BT1,€ 118
K0959,1330RCT1,€ 118
K0962,13305CT1,€ 118
K0965,13306CT1,€ 118
K0951,1330RBT2,€ 118
K0954,13305BT2,€ 118
K0957,13306BT2,€ 118
K0960,1330RCT2,€ 118
K0963,13305CT2,€ 118
K0966,13306CT2,€ 118
K0952,1330RBT0,€ 118
K0955,13305BT0,€ 118
K0958,13306BT0,€ 118
K0961,1330RCT0,€ 118
K0964,13305CT0,€ 118
K0967,13306CT0,€ 118
K0970,1331IBR1,€ 122
K0973,1331ABR1,€ 122
K0976,1331BBR1,€ 122
K0979,1331ICR1,€ 122
K0982,1331ACR1,€ 122
K0985,1331BCR1,€ 122
K0988,1331IQR1,€ 122
K0991,1331AQR1,€ 122
K0994,1331BQR1,€ 122
K0971,1331IBR2,€ 122
K0974,1331ABR2,€ 122
K0977,1331BBR2,€ 122
K0980,1331ICR2,€ 122
K0983,1331ACR2,€ 122
K0986,1331BCR2,€ 122
K0989,1331IQR2,€ 122
K0992,1331AQR2,€ 122
K0995,1331BQR2,€ 122
K0972,1331IBR0,€ 122
K0975,1331ABR0,€ 122
K0978,1331BBR0,€ 122
K0981,1331ICR0,€ 122
K0984,1331ACR0,€ 122
K0987,1331BCR0,€ 122
K0990,1331IQR0,€ 122
K0993,1331AQR0,€ 122
K0996,1331BQR0,€ 122
K1000,1332IDR1,€ 129
K1003,1332ADR1,€ 129
K1006,1332BDR1,€ 129
K1009,1332IER1,€ 129
K1012,1332AER1,€ 129
K1015,1332BER1,€ 129
K1001,1332IDR2,€ 129
K1004,1332ADR2,€ 129
K1007,1332BDR2,€ 129
K1010,1332IER2,€ 129
K1013,1332AER2,€ 129
K1016,1332BER2,€ 129
K1002,1332IDR0,€ 129
K1005,1332ADR0,€ 129
K1008,1332BDR0,€ 129
K1011,1332IER0,€ 129
K1014,1332AER0,€ 129
K1017,1332BER0,€ 129
K1020,1321IBR1,€ 122
K1023,1321ABR1,€ 122
K1026,1321BBR1,€ 122
K1029,1321ICR1,€ 122
K1032,1321ACR1,€ 122
K1035,1321BCR1,€ 122
K1038,1321IQR1,€ 122
K1041,1321AQR1,€ 122
K1044,1321BQR1,€ 122
K1021,1321IBR2,€ 122
K1024,1321ABR2,€ 122
K1027,1321BBR2,€ 122
K1030,1321ICR2,€ 122
K1033,1321ACR2,€ 122
K1036,1321BCR2,€ 122
K1039,1321IQR2,€ 122
K1042,1321AQR2,€ 122
K1045,1321BQR2,€ 122
K1022,1321IBR0,€ 122
K1025,1321ABR0,€ 122
K1028,1321BBR0,€ 122
K1031,1321ICR0,€ 122
K1034,1321ACR0,€ 122
K1037,1321BCR0,€ 122
K1040,1321IQR0,€ 122
K1043,1321AQR0,€ 122
K1046,1321BQR0,€ 122
K1058,1322IDR1,€ 129
K1061,1322ADR1,€ 129
K1064,1322BDR1,€ 129
K1067,1322IER1,€ 129
K1070,1322AER1,€ 129
K1073,1322BER1,€ 129
K1059,1322IDR2,€ 129
K1062,1322ADR2,€ 129
K1065,1322BDR2,€ 129
K1068,1322IER2,€ 129
K1071,1322AER2,€ 129
K1074,1322BER2,€ 129
K1060,1322IDR0,€ 129
K1063,1322ADR0,€ 129
K1066,1322BDR0,€ 129
K1069,1322IER0,€ 129
K1072,1322AER0,€ 129
K1075,1322BER0,€ 129
K1080,23412QN1,€ 113
K1082,23413QN1,€ 113
K1081,23412QN2,€ 113
K1083,23413QN2,€ 113
K1090,23422EN1,€ 120
K1092,23423EN1,€ 120
K1091,23422EN2,€ 120
K1093,23423EN2,€ 120
K1100,24412QN1,€ 113
K1101,24412QN2,€ 113
K1120,12727WB1,€ 107
K1121,12728WB1,€ 107
K1122,12727WF1,€ 107
K1123,12728WF1,€ 107
K1124,12727WN1,€ 107
K1125,12728WN1,€ 107
K0131,12727WB2,€ 107
K0134,12728WB2,€ 107
K0137,12727WF2,€ 107
K0140,12728WF2,€ 107
K0143,12727WN2,€ 107
K0146,12728WN2,€ 107
K2027,SD2700,€ 79
K2030,SD3000,€ 79
K2040,SD4000,€ 79
K2127,SL2700,€ 105
K2130,SL3000,€ 105
K2140,SL4000,€ 105
