{ 
    "mapCorpo1" : {
        "1":"5a82eb5af10c4d04008181b1",  
        "0":"5a82eca41879400400cbb3f8",   
        "2":"5a82ec8b1879400400cbb3f7",
        "9":"5a82eb5af10c4d04008181b1"  
    },
    "mapCorpo2" : {
        "1":"5a82edd51879400400cbb3fe",   
        "0":"5a82ee161879400400cbb400",   
        "2":"5a82ee021879400400cbb3ff",
        "9":"5a82edd51879400400cbb3fe"   
    },
    "mapOttica1" : {
        "D":"5a82f055cf845a0400031566",   
        "H":"5a82f05ecf845a0400031567",  
        "N":"5a82f06acf845a0400031568",    
        "U":"5a82f06acf845a0400031568"    
    },
    "mapOttica2" : {
        "D":"5a82ef001879400400cbb402",  
        "H":"5a82ef001879400400cbb402",   
        "N":"5a82ef001879400400cbb402",   
        "U":"5a82ef0c1879400400cbb403"    
    }
}